<svg width="1908" height="758" viewBox="0 0 1908 758" fill="none" xmlns="http://www.w3.org/2000/svg">
<g filter="url(#filter0_d)">
<rect x="4" width="1900" height="650" fill="#FAFAFA"/>
<rect x="4" y="650" width="125" height="25" fill="#FAFAFA"/>
<rect x="54" y="650" width="25" height="25" fill="#FAFAFA"/>
<rect x="54" y="675" width="125" height="25" fill="#FAFAFA"/>
<rect x="204" y="675" width="75" height="25" fill="#FAFAFA"/>
<rect x="79" y="650" width="25" height="25" fill="#FAFAFA"/>
<rect x="4" y="675" width="25" height="25" fill="#FAFAFA"/>
<rect x="4" y="700" width="50" height="25" fill="#FAFAFA"/>
<rect x="304" y="675" width="50" height="25" fill="#FAFAFA"/>
<rect x="4" y="725" width="25" height="25" fill="#FAFAFA"/>
<rect x="79" y="700" width="25" height="25" fill="#FAFAFA"/>
<rect x="154" y="650" width="400" height="25" fill="#FAFAFA"/>
<rect x="579" y="650" width="375" height="25" fill="#FAFAFA"/>
<rect x="154" y="700" width="25" height="25" fill="#FAFAFA"/>
<rect x="204" y="700" width="25" height="25" fill="#FAFAFA"/>
<rect x="604" y="675" width="25" height="25" fill="#FAFAFA"/>
<rect x="679" y="675" width="25" height="25" fill="#FAFAFA"/>
<rect x="854" y="700" width="25" height="25" fill="#FAFAFA"/>
<rect x="929" y="675" width="25" height="50" fill="#FAFAFA"/>
<rect x="754" y="675" width="150" height="25" fill="#FAFAFA"/>
<rect x="954" y="650" width="125" height="25" fill="#FAFAFA"/>
<rect x="1004" y="650" width="25" height="25" fill="#FAFAFA"/>
<rect x="1004" y="675" width="125" height="25" fill="#FAFAFA"/>
<rect x="1154" y="675" width="75" height="25" fill="#FAFAFA"/>
<rect x="1029" y="650" width="25" height="25" fill="#FAFAFA"/>
<rect x="954" y="675" width="25" height="25" fill="#FAFAFA"/>
<rect x="954" y="700" width="50" height="25" fill="#FAFAFA"/>
<rect x="1254" y="675" width="50" height="25" fill="#FAFAFA"/>
<rect x="954" y="725" width="25" height="25" fill="#FAFAFA"/>
<rect x="1029" y="700" width="25" height="25" fill="#FAFAFA"/>
<rect x="1104" y="650" width="400" height="25" fill="#FAFAFA"/>
<rect x="1529" y="650" width="375" height="25" fill="#FAFAFA"/>
<rect x="1104" y="700" width="25" height="25" fill="#FAFAFA"/>
<rect x="1154" y="700" width="25" height="25" fill="#FAFAFA"/>
<rect x="1554" y="675" width="25" height="25" fill="#FAFAFA"/>
<rect x="1629" y="675" width="25" height="25" fill="#FAFAFA"/>
<rect x="1804" y="700" width="25" height="25" fill="#FAFAFA"/>
<rect x="1879" y="675" width="25" height="50" fill="#FAFAFA"/>
<rect x="1704" y="675" width="150" height="25" fill="#FAFAFA"/>
</g>
<defs>
<filter id="filter0_d" x="0" y="0" width="1908" height="758" filterUnits="userSpaceOnUse" color-interpolation-filters="sRGB">
<feFlood flood-opacity="0" result="BackgroundImageFix"/>
<feColorMatrix in="SourceAlpha" type="matrix" values="0 0 0 0 0 0 0 0 0 0 0 0 0 0 0 0 0 0 127 0"/>
<feOffset dy="4"/>
<feGaussianBlur stdDeviation="2"/>
<feColorMatrix type="matrix" values="0 0 0 0 0 0 0 0 0 0 0 0 0 0 0 0 0 0 0.25 0"/>
<feBlend mode="normal" in2="BackgroundImageFix" result="effect1_dropShadow"/>
<feBlend mode="normal" in="SourceGraphic" in2="effect1_dropShadow" result="shape"/>
</filter>
</defs>
</svg>
